Analyze Simaerep — Analyze_Simaerep • gsm.simaerep
…
# {clindata} Example for cumulative AE per Visit Count
dfInput <- Input_CumCount(
  dfSubjects = clindata::rawplus_dm,
  dfNumerator = clindata::rawplus_ae,
  dfDenominator = clindata::rawplus_visdt %>% dplyr::mutate(visit_dt = lubridate::ymd(visit_dt)),
  strSubjectCol = "subjid",
  strGroupCol = "siteid",
  strGroupLevel = "Site",
  strNumeratorDateCol = "aest_dt",
  strDenominatorDateCol = "visit_dt"
)

Analyze_Simaerep(dfInput)
#> # A tibble: 176 × 9
#>    GroupID GroupLevel Numerator Denominator Metric OverReportingProbability
#>    <chr>   <chr>          <dbl>       <dbl>  <dbl>                    <dbl>
#>  1 10      Site               8         390 0.0205                    0    
#>  2 100     Site               6          41 0.146                     0.621
#>  3 101     Site               4          64 0.0625                    0.18 
#>  4 102     Site               8          69 0.116                     0.336
#>  5 103     Site               8          86 0.0930                    0.256
#>  6 104     Site              25         182 0.137                     0.362
#>  7 105     Site              24          65 0.369                     0.952
#>  8 106     Site               7          69 0.101                     0.32 
#>  9 107     Site              14          63 0.222                     0.776
#> 10 109     Site               8          89 0.0899                    0.218
#> # ℹ 166 more rows
#> # ℹ 3 more variables: UnderReportingProbability <dbl>, Score <dbl>,
#> #   ExpectedNumerator <dbl>
…
