Cumulative Numerator Event Count per Denominator Event Count — Input_CumCount • gsm.simaerep
…
# {clindata} Example for cumulative AE per Visit Count
Input_CumCount(
    dfSubjects = clindata::rawplus_dm,
    dfNumerator = clindata::rawplus_ae,
    dfDenominator = clindata::rawplus_visdt %>% dplyr::mutate(visit_dt = lubridate::ymd(visit_dt)),
    strSubjectCol = "subjid",
    strGroupCol = "siteid",
    strGroupLevel = "Site",
    strNumeratorDateCol = "aest_dt",
    strDenominatorDateCol  = "visit_dt"
  )
#> # A tibble: 28,074 × 5
#>    SubjectID GroupID GroupLevel Numerator Denominator
#>    <chr>     <chr>   <chr>          <dbl>       <dbl>
#>  1 0025      10      Site               0           1
#>  2 0025      10      Site               0           2
#>  3 0025      10      Site               0           3
#>  4 0025      10      Site               0           4
#>  5 0025      10      Site               0           5
#>  6 0025      10      Site               0           6
#>  7 0025      10      Site               0           7
#>  8 0025      10      Site               0           8
#>  9 0025      10      Site               0           9
#> 10 0025      10      Site               0          10
#> # ℹ 28,064 more rows
…
